﻿Log file open, 09/17/17 02:12:31
LogWindows: LoadLibraryWithSearchPaths failed for file aqProf.dll. GetLastError=0
LogWindows: LoadLibraryWithSearchPaths failed for file VtuneApi.dll. GetLastError=0
LogWindows: LoadLibraryWithSearchPaths failed for file VtuneApi32e.dll. GetLastError=0
LogInit: Display: Running engine for game: VRQuidditch
LogPlatformFile: Not using cached read wrapper
LogInit: Display: RandInit(1280668737) SRandInit(1280668737).
LogTaskGraph: Started task graph with 5 named threads and 14 total threads with 3 sets of task threads.
LogStats: Stats thread started at 0.151254
LogD3D11RHI: Aftermath initialized
LogPluginManager: Mounting plugin Paper2D
LogPluginManager: Mounting plugin LightPropagationVolume
LogPluginManager: Mounting plugin CodeLiteSourceCodeAccess
LogPluginManager: Mounting plugin GitSourceControl
LogPluginManager: Mounting plugin KDevelopSourceCodeAccess
LogPluginManager: Mounting plugin NullSourceCodeAccess
LogPluginManager: Mounting plugin PerforceSourceControl
LogPluginManager: Mounting plugin SubversionSourceControl
LogPluginManager: Mounting plugin UObjectPlugin
LogPluginManager: Mounting plugin VisualStudioSourceCodeAccess
LogPluginManager: Mounting plugin XCodeSourceCodeAccess
LogPluginManager: Mounting plugin AssetManagerEditor
LogPluginManager: Mounting plugin AudioCapture
LogPluginManager: Mounting plugin FacialAnimation
LogPluginManager: Mounting plugin GameplayTagsEditor
LogPluginManager: Mounting plugin MobileLauncherProfileWizard
LogPluginManager: Mounting plugin PluginBrowser
LogPluginManager: Mounting plugin SpeedTreeImporter
LogPluginManager: Mounting plugin AlembicImporter
LogPluginManager: Mounting plugin CharacterAI
LogPluginManager: Mounting plugin HTML5Networking
LogPluginManager: Mounting plugin AndroidMedia
LogPluginManager: Mounting plugin AvfMedia
LogPluginManager: Mounting plugin MediaPlayerEditor
LogPluginManager: Mounting plugin WmfMedia
LogPluginManager: Mounting plugin TcpMessaging
LogPluginManager: Mounting plugin UdpMessaging
LogPluginManager: Mounting plugin LevelSequenceEditor
LogPluginManager: Mounting plugin MatineeToLevelSequence
LogPluginManager: Mounting plugin OnlineSubsystemGooglePlay
LogPluginManager: Mounting plugin OnlineSubsystemIOS
LogPluginManager: Mounting plugin OnlineSubsystem
LogPluginManager: Mounting plugin OnlineSubsystemNull
LogPluginManager: Mounting plugin OnlineSubsystemUtils
LogPluginManager: Mounting plugin AndroidDeviceProfileSelector
LogPluginManager: Mounting plugin AndroidMoviePlayer
LogPluginManager: Mounting plugin AndroidPermission
LogPluginManager: Mounting plugin AppleMoviePlayer
LogPluginManager: Mounting plugin ArchVisCharacter
LogPluginManager: Mounting plugin CableComponent
LogPluginManager: Mounting plugin CustomMeshComponent
LogPluginManager: Mounting plugin ExampleDeviceProfileSelector
LogPluginManager: Mounting plugin GoogleCloudMessaging
LogPluginManager: Mounting plugin ImmediatePhysics
LogPluginManager: Mounting plugin IOSDeviceProfileSelector
LogPluginManager: Mounting plugin LinuxDeviceProfileSelector
LogPluginManager: Mounting plugin LocationServicesBPLibrary
LogPluginManager: Mounting plugin MobilePatchingUtils
LogPluginManager: Mounting plugin OculusVR
LogPluginManager: Mounting plugin PhysXVehicles
LogPluginManager: Mounting plugin ProceduralMeshComponent
LogPluginManager: Mounting plugin RuntimePhysXCooking
LogPluginManager: Mounting plugin SteamVR
LogPluginManager: Mounting plugin WindowsMoviePlayer
LogInit: Using libcurl 7.47.1
LogInit:  - built for x86_64-pc-win32
LogInit:  - supports SSL with OpenSSL/1.0.2g
LogInit:  - supports HTTP deflate (compression) using libz 1.2.8
LogInit:  - other features:
LogInit:      CURL_VERSION_SSL
LogInit:      CURL_VERSION_LIBZ
LogInit:      CURL_VERSION_IPV6
LogInit:      CURL_VERSION_ASYNCHDNS
LogInit:      CURL_VERSION_LARGEFILE
LogInit:      CURL_VERSION_IDN
LogInit:  CurlRequestOptions (configurable via config and command line):
LogInit:  - bVerifyPeer = false  - Libcurl will NOT verify peer certificate
LogInit:  - bUseHttpProxy = false  - Libcurl will NOT use HTTP proxy
LogInit:  - bDontReuseConnections = false  - Libcurl will reuse connections
LogInit:  - CertBundlePath = nullptr  - Libcurl will use whatever was configured at build time.
LogInit: WinSock: version 1.1 (2.2), MaxSocks=32767, MaxUdp=65467
LogInit: Build: ++UE4+Release-4.17-CL-3586342
LogInit: Engine Version: 4.17.1-3586342+++UE4+Release-4.17
LogInit: Compatible Engine Version: 4.17.0-3573198+++UE4+Release-4.17
LogInit: Net CL: 3573198
LogDevObjectVersion: Number of dev versions registered: 16
LogDevObjectVersion:   Dev-Blueprints (B0D832E4-1F89-4F0D-ACCF-7EB736FD4AA2): 10
LogDevObjectVersion:   Dev-Build (E1C64328-A22C-4D53-A36C-8E866417BD8C): 0
LogDevObjectVersion:   Dev-Core (375EC13C-06E4-48FB-B500-84F0262A717E): 2
LogDevObjectVersion:   Dev-Editor (E4B068ED-F494-42E9-A231-DA0B2E46BB41): 20
LogDevObjectVersion:   Dev-Framework (CFFC743F-43B0-4480-9391-14DF171D2073): 28
LogDevObjectVersion:   Dev-Mobile (B02B49B5-BB20-44E9-A304-32B752E40360): 0
LogDevObjectVersion:   Dev-Networking (A4E4105C-59A1-49B5-A7C5-40C4547EDFEE): 0
LogDevObjectVersion:   Dev-Online (39C831C9-5AE6-47DC-9A44-9C173E1C8E7C): 0
LogDevObjectVersion:   Dev-Physics (78F01B33-EBEA-4F98-B9B4-84EACCB95AA2): 0
LogDevObjectVersion:   Dev-Platform (6631380F-2D4D-43E0-8009-CF276956A95A): 0
LogDevObjectVersion:   Dev-Rendering (12F88B9F-8875-4AFC-A67C-D90C383ABD29): 19
LogDevObjectVersion:   Dev-Sequencer (7B5AE74C-D270-4C10-A958-57980B212A5A): 4
LogDevObjectVersion:   Dev-VR (D7296918-1DD6-4BDD-9DE2-64A83CC13884): 0
LogDevObjectVersion:   Dev-LoadTimes (C2A15278-BFE7-4AFE-6C17-90FF531DF755): 1
LogDevObjectVersion:   Private-Geometry (6EACA3D4-40EC-4CC1-B786-8BED09428FC5): 1
LogDevObjectVersion:   Dev-AnimPhys (29E575DD-E0A3-4627-9D10-D276232CDCEA): 7
LogInit: Compiled (64-bit): Aug 15 2017 02:05:26
LogInit: Compiled with Visual C++: 19.00.24215.01
LogInit: Build Configuration: Development
LogInit: Branch Name: ++UE4+Release-4.17
LogInit: Command line:  
LogInit: Base directory: C:/Program Files/Epic Games/UE_4.17/Engine/Binaries/Win64/
LogInit: Installed Engine Build: 1
LogInit: Presizing for max 8388607 objects, including 0 objects not considered by GC, pre-allocating 0 bytes for permanent pool.
LogInit: Object subsystem initialized
[2017.09.17-09.12.31:625][  0]LogInit: Selected Device Profile: [Windows]
[2017.09.17-09.12.31:625][  0]LogInit: Applying CVar settings loaded from the selected device profile: [Windows]
[2017.09.17-09.12.31:633][  0]LogInit: Computer: DEV-ARENA-02
[2017.09.17-09.12.31:633][  0]LogInit: User: VRSUO14
[2017.09.17-09.12.31:633][  0]LogInit: CPU Page size=4096, Cores=4
[2017.09.17-09.12.31:633][  0]LogInit: High frequency timer resolution =3.906244 MHz
[2017.09.17-09.12.31:633][  0]LogMemory: Memory total: Physical=15.9GB (16GB approx)
[2017.09.17-09.12.31:633][  0]LogMemory: Platform Memory Stats for Windows
[2017.09.17-09.12.31:633][  0]LogMemory: Process Physical Memory: 287.23 MB used, 287.23 MB peak
[2017.09.17-09.12.31:633][  0]LogMemory: Process Virtual Memory: 286.13 MB used, 286.13 MB peak
[2017.09.17-09.12.31:633][  0]LogMemory: Physical Memory: 5094.16 MB used,  11151.50 MB free, 16245.66 MB total
[2017.09.17-09.12.31:633][  0]LogMemory: Virtual Memory: 715.98 MB used,  11151.50 MB free, 134217728.00 MB total
[2017.09.17-09.12.31:741][  0]LogInit: Using OS detected language (en-US).
[2017.09.17-09.12.31:741][  0]LogInit: Using OS detected locale (en-US).
[2017.09.17-09.12.31:743][  0]LogTextLocalizationManager: No specific localization for 'en-US' exists, so the 'en' localization will be used.
[2017.09.17-09.12.32:262][  0]LogD3D11RHI: D3D11 adapters:
[2017.09.17-09.12.32:293][  0]LogD3D11RHI:    0. 'NVIDIA GeForce GTX 1080' (Feature Level 11_0)
[2017.09.17-09.12.32:293][  0]LogD3D11RHI:       8110/0/8122 MB DedicatedVideo/DedicatedSystem/SharedSystem, Outputs:2, VendorId:0x10de
[2017.09.17-09.12.32:297][  0]LogD3D11RHI:    1. 'Intel(R) HD Graphics 4600' (Feature Level 11_0)
[2017.09.17-09.12.32:297][  0]LogD3D11RHI:       112/0/2048 MB DedicatedVideo/DedicatedSystem/SharedSystem, Outputs:0, VendorId:0x8086
[2017.09.17-09.12.32:298][  0]LogD3D11RHI:    2. 'Microsoft Basic Render Driver' (Feature Level 11_0)
[2017.09.17-09.12.32:298][  0]LogD3D11RHI:       0/0/8122 MB DedicatedVideo/DedicatedSystem/SharedSystem, Outputs:0, VendorId:0x1414
[2017.09.17-09.12.32:298][  0]LogD3D11RHI: Chosen D3D11 Adapter: 0
[2017.09.17-09.12.32:304][  0]LogD3D11RHI: Creating new Direct3DDevice
[2017.09.17-09.12.32:304][  0]LogD3D11RHI:     GPU DeviceId: 0x1b80 (for the marketing name, search the web for "GPU Device Id")
[2017.09.17-09.12.32:304][  0]LogWindows: EnumDisplayDevices:
[2017.09.17-09.12.32:304][  0]LogWindows:    0. 'NVIDIA GeForce GTX 1080' (P:1 D:1)
[2017.09.17-09.12.32:305][  0]LogWindows:    1. 'NVIDIA GeForce GTX 1080' (P:0 D:1)
[2017.09.17-09.12.32:305][  0]LogWindows:    2. 'NVIDIA GeForce GTX 1080' (P:0 D:0)
[2017.09.17-09.12.32:305][  0]LogWindows:    3. 'NVIDIA GeForce GTX 1080' (P:0 D:0)
[2017.09.17-09.12.32:305][  0]LogWindows:    4. 'Intel(R) HD Graphics 4600' (P:0 D:0)
[2017.09.17-09.12.32:305][  0]LogWindows:    5. 'Intel(R) HD Graphics 4600' (P:0 D:0)
[2017.09.17-09.12.32:305][  0]LogWindows:    6. 'Intel(R) HD Graphics 4600' (P:0 D:0)
[2017.09.17-09.12.32:305][  0]LogWindows: DebugString: PrimaryIsNotTheChoosenAdapter PrimaryIsNotTheChoosenAdapter PrimaryIsNotTheChoosenAdapter FoundDriverCount:4 
[2017.09.17-09.12.32:305][  0]LogD3D11RHI:     Adapter Name: NVIDIA GeForce GTX 1080
[2017.09.17-09.12.32:305][  0]LogD3D11RHI:   Driver Version: 382.05 (internal:22.21.13.8205, unified:382.05)
[2017.09.17-09.12.32:305][  0]LogD3D11RHI:      Driver Date: 5-1-2017
[2017.09.17-09.12.32:305][  0]LogRHI: Texture pool is 1361 MB (70% of 1945 MB)
[2017.09.17-09.12.32:332][  0]LogD3D11RHI: Async texture creation enabled
[2017.09.17-09.12.32:342][  0]LogD3D11RHI: GPU Timing Frequency: 1000.000000 (Debug: 2 1)
[2017.09.17-09.12.32:438][  0]LogShaderCompilers: Guid format shader working directory is 23 characters bigger than the processId version (D:/VRHackathon/VRQuidditch/Intermediate/Shaders/WorkingDirectory/26512/).
[2017.09.17-09.12.32:438][  0]LogShaderCompilers: Cleaned the shader compiler working directory 'C:/Users/VRS_UO_14/AppData/Local/Temp/UnrealShaderWorkingDir/D4E22E6F4711F4E5E9FC4796E122DDC5/'.
[2017.09.17-09.12.32:438][  0]LogShaderCompilers: Display: Using Local Shader Compiler.
[2017.09.17-09.12.33:145][  0]LogTemp: Display: Loaded TP AllDesktopTargetPlatform
[2017.09.17-09.12.33:181][  0]LogTemp: Display: Loaded TP MacClientTargetPlatform
[2017.09.17-09.12.33:218][  0]LogTemp: Display: Loaded TP MacNoEditorTargetPlatform
[2017.09.17-09.12.33:255][  0]LogTemp: Display: Loaded TP MacServerTargetPlatform
[2017.09.17-09.12.33:292][  0]LogTemp: Display: Loaded TP MacTargetPlatform
[2017.09.17-09.12.33:329][  0]LogTemp: Display: Loaded TP WindowsClientTargetPlatform
[2017.09.17-09.12.33:367][  0]LogTemp: Display: Loaded TP WindowsNoEditorTargetPlatform
[2017.09.17-09.12.33:404][  0]LogTemp: Display: Loaded TP WindowsServerTargetPlatform
[2017.09.17-09.12.33:436][  0]LogTemp: Display: Loaded TP WindowsTargetPlatform
[2017.09.17-09.12.33:472][  0]LogTemp: Display: Loaded TP AndroidTargetPlatform
[2017.09.17-09.12.33:508][  0]LogTemp: Display: Loaded TP Android_ASTCTargetPlatform
[2017.09.17-09.12.33:548][  0]LogTemp: Display: Loaded TP Android_ATCTargetPlatform
[2017.09.17-09.12.33:584][  0]LogTemp: Display: Loaded TP Android_DXTTargetPlatform
[2017.09.17-09.12.33:620][  0]LogTemp: Display: Loaded TP Android_ETC1TargetPlatform
[2017.09.17-09.12.33:655][  0]LogTemp: Display: Loaded TP Android_ETC2TargetPlatform
[2017.09.17-09.12.33:727][  0]LogTemp: Display: Loaded TP Android_MultiTargetPlatform
[2017.09.17-09.12.33:727][  0]LogTemp: Display: Loaded TP Android_PVRTCTargetPlatform
[2017.09.17-09.12.33:755][  0]LogTemp: Display: Loaded TP HTML5TargetPlatform
[2017.09.17-09.12.33:826][  0]LogTemp: Display: Loaded TP IOSTargetPlatform
[2017.09.17-09.12.33:848][  0]LogTemp: Display: Loaded TP TVOSTargetPlatform
[2017.09.17-09.12.33:884][  0]LogTemp: Display: Loaded TP LinuxClientTargetPlatform
[2017.09.17-09.12.33:920][  0]LogTemp: Display: Loaded TP LinuxNoEditorTargetPlatform
[2017.09.17-09.12.33:955][  0]LogTemp: Display: Loaded TP LinuxServerTargetPlatform
[2017.09.17-09.12.33:991][  0]LogTemp: Display: Loaded TP LinuxTargetPlatform
[2017.09.17-09.12.33:992][  0]LogTargetPlatformManager: Display: Building Assets For Windows
[2017.09.17-09.12.34:326][  0]LogDerivedDataCache: Display: Max Cache Size: 512 MB
[2017.09.17-09.12.34:415][  0]LogDerivedDataCache: Loaded boot cache 0.09s 106MB C:/Users/VRS_UO_14/AppData/Local/UnrealEngine/4.17/DerivedDataCache/Boot.ddc.
[2017.09.17-09.12.34:415][  0]LogDerivedDataCache: Display: Loaded Boot cache: C:/Users/VRS_UO_14/AppData/Local/UnrealEngine/4.17/DerivedDataCache/Boot.ddc
[2017.09.17-09.12.34:415][  0]LogDerivedDataCache: FDerivedDataBackendGraph:  Pak pak cache file D:/VRHackathon/VRQuidditch/DerivedDataCache/DDC.ddp not found, will not use a pak cache.
[2017.09.17-09.12.34:415][  0]LogDerivedDataCache: Unable to find inner node Pak for hierarchical cache Hierarchy.
[2017.09.17-09.12.34:415][  0]LogDerivedDataCache: FDerivedDataBackendGraph:  CompressedPak pak cache file D:/VRHackathon/VRQuidditch/DerivedDataCache/Compressed.ddp not found, will not use a pak cache.
[2017.09.17-09.12.34:415][  0]LogDerivedDataCache: Unable to find inner node CompressedPak for hierarchical cache Hierarchy.
[2017.09.17-09.12.34:429][  0]LogDerivedDataCache: Display: Pak cache opened for reading ../../../Engine/DerivedDataCache/Compressed.ddp.
[2017.09.17-09.12.34:440][  0]LogDerivedDataCache: Using Local data cache path C:/Users/VRS_UO_14/AppData/Local/UnrealEngine/Common/DerivedDataCache: Writable
[2017.09.17-09.12.34:449][  0]LogMaterial: Verifying Global Shaders for PCD3D_SM5
[2017.09.17-09.12.34:449][  0]LogSlate: Using Freetype 2.6.0
[2017.09.17-09.12.34:449][  0]LogSlate: SlateFontCache - WITH_FREETYPE: 1, WITH_HARFBUZZ: 1
[2017.09.17-09.12.34:449][  0]LogSlate: SlateFontCache - WITH_FREETYPE: 1, WITH_HARFBUZZ: 1
[2017.09.17-09.12.34:656][  0]LogAssetRegistry: FAssetRegistry took 0.0245 seconds to start up
[2017.09.17-09.12.34:736][  0]LogInit: Selected Device Profile: [Windows]
[2017.09.17-09.12.34:847][  0]LogContentStreaming: Texture pool size is 0.00 MB
[2017.09.17-09.12.35:063][  0]LogSimplygon: Simplygon DLL not present - disabling.
[2017.09.17-09.12.35:090][  0]LogMeshReduction: Using SimplygonSwarm for distributed automatic mesh merging
[2017.09.17-09.12.35:090][  0]LogMeshReduction: Using QuadricMeshReduction for automatic static mesh reduction
[2017.09.17-09.12.35:090][  0]LogMeshReduction: No automatic skeletal mesh reduction module available
[2017.09.17-09.12.35:091][  0]LogMeshReduction: No automatic mesh merging module available
[2017.09.17-09.12.35:091][  0]LogMeshMerging: No automatic mesh merging module available
[2017.09.17-09.12.35:355][  0]LogNetVersion: VRQuidditch , NetCL: 3573198, EngineNetVer: 2, GameNetVer: 0 (Checksum: 3055910073)
[2017.09.17-09.12.35:500][  0]LogPackageLocalizationCache: Processed 5 localized package path(s) for 2 prioritized culture(s) in 0.029774 seconds
[2017.09.17-09.12.35:506][  0]LogUObjectArray: 35825 objects as part of root set at end of initial load.
[2017.09.17-09.12.35:506][  0]LogUObjectAllocator: 7529112 out of 0 bytes used by permanent object pool.
[2017.09.17-09.12.35:506][  0]LogUObjectArray: CloseDisregardForGC: 0/0 objects in disregard for GC pool
[2017.09.17-09.12.37:368][  0]LogTcpMessaging: Initializing TcpMessaging bridge
[2017.09.17-09.12.37:398][  0]LogUdpMessaging: Initializing bridge on interface 0.0.0.0:0 to multicast group 230.0.0.1:6666.
[2017.09.17-09.12.37:853][  0]LogMaterial: Uniform references updated for custom material expression Custom.
[2017.09.17-09.12.38:136][  0]SourceControl: Source control is disabled
[2017.09.17-09.12.38:136][  0]SourceControl: Source control is disabled
[2017.09.17-09.12.38:169][  0]SourceControl: Source control is disabled
[2017.09.17-09.12.38:202][  0]SourceControl: Source control is disabled
[2017.09.17-09.12.38:567][  0]LogAndroidPermission: UAndroidPermissionCallbackProxy::GetInstance
[2017.09.17-09.12.38:733][  0]LogOcInput: OculusInput pre-init called
[2017.09.17-09.12.38:916][  0]LogEngine: Initializing Engine...
[2017.09.17-09.12.38:917][  0]LogHMD: Oculus plugin initialized. Version: 4.17.1-3586342+++UE4+Release-4.17, OVRPlugin: 1.15.0
[2017.09.17-09.12.39:093][  0]LogStats: UGameplayTagsManager::ConstructGameplayTagTree: Construct from data asset -  0.000 s
[2017.09.17-09.12.39:093][  0]LogStats: UGameplayTagsManager::ConstructGameplayTagTree: GameplayTagTreeChangedEvent.Broadcast -  0.000 s
[2017.09.17-09.12.39:183][  0]LogAIModule: Creating AISystem for world Untitled
[2017.09.17-09.12.39:206][  0]LogInit: XAudio2 using 'ASUS VS228-8 (NVIDIA High Definition Audio)' : 2 channels at 48 kHz using 16 bits per sample (channel mask 0x3)
[2017.09.17-09.12.39:222][  0]LogInit: FAudioDevice initialized.
[2017.09.17-09.12.39:305][  0]LogDerivedDataCache: Saved boot cache 0.08s 106MB C:/Users/VRS_UO_14/AppData/Local/UnrealEngine/4.17/DerivedDataCache/Boot.ddc.
[2017.09.17-09.12.39:325][  0]LogInit: Texture streaming: Enabled
[2017.09.17-09.12.39:404][  0]LogEngineSessionManager: EngineSessionManager initialized
[2017.09.17-09.12.39:558][  0]LogInit: Transaction tracking system initialized
[2017.09.17-09.12.39:772][  0]BlueprintLog: New page: Editor Load
[2017.09.17-09.12.40:380][  0]LocalizationService: Localization service is disabled
[2017.09.17-09.12.40:859][  0]LogConsoleResponse: Display: 
[2017.09.17-09.12.40:993][  0]LogCook: Display: Max memory allowance for cook 16384mb min free memory 0mb
[2017.09.17-09.12.40:993][  0]LogCook: Display: Mobile HDR setting 1
[2017.09.17-09.12.40:993][  0]LogGameplayTags: Display: UGameplayTagsManager::DoneAddingNativeTags. DelegateIsBound: 0
[2017.09.17-09.12.41:146][  0]LogFileCache: Scanning file cache for directory 'D:/VRHackathon/VRQuidditch/Content/' took 0.01s
[2017.09.17-09.12.41:718][  0]SourceControl: Source control is disabled
[2017.09.17-09.12.41:718][  0]Cmd: MAP LOAD FILE="D:/VRHackathon/VRQuidditch/Content/Maps/Pitch.umap" TEMPLATE=0 SHOWPROGRESS=1 FEATURELEVEL=3
[2017.09.17-09.12.41:718][  0]LightingResults: New page: Lighting Build
[2017.09.17-09.12.41:747][  0]MapCheck: New page: Map Check
[2017.09.17-09.12.41:747][  0]LightingResults: New page: Lighting Build
[2017.09.17-09.12.41:957][  0]LogAIModule: Creating AISystem for world Pitch
[2017.09.17-09.12.41:962][  0]LogEditorServer: Finished looking for orphan Actors (0.000 secs)
[2017.09.17-09.12.41:972][  0]Cmd: MAP CHECKDEP NOCLEARLOG
[2017.09.17-09.12.42:010][  0]MapCheck: Map check complete: 0 Error(s), 0 Warning(s), took 37.041ms to complete.
[2017.09.17-09.12.42:010][  0]LogFileHelpers: Loading map 'Pitch' took 0.292
[2017.09.17-09.12.42:135][  0]LogCollectionManager: Loaded 0 collections in 0.001063 seconds
[2017.09.17-09.12.42:203][  0]LogFileCache: Scanning file cache for directory 'D:/VRHackathon/VRQuidditch/Saved/Collections/' took 0.01s
[2017.09.17-09.12.42:203][  0]LogFileCache: Scanning file cache for directory 'D:/VRHackathon/VRQuidditch/Content/Developers/VRSUO14/Collections/' took 0.01s
[2017.09.17-09.12.42:203][  0]LogFileCache: Scanning file cache for directory 'D:/VRHackathon/VRQuidditch/Content/Collections/' took 0.01s
[2017.09.17-09.12.42:203][  0]LogCollectionManager: Rebuilt the GUID cache for 0 collections in 0.000001 seconds
[2017.09.17-09.12.42:210][  0]LogContentBrowser: Native class hierarchy populated in 0.0071 seconds. Added 2386 classes and 500 folders.
[2017.09.17-09.12.42:255][  0]LogContentBrowser: Native class hierarchy updated for 'WidgetCarousel' in 0.0005 seconds. Added 0 classes and 0 folders.
[2017.09.17-09.12.42:283][  0]LogContentBrowser: Native class hierarchy updated for 'AddContentDialog' in 0.0005 seconds. Added 0 classes and 0 folders.
[2017.09.17-09.12.42:314][  0]LogContentBrowser: Native class hierarchy updated for 'SceneOutliner' in 0.0005 seconds. Added 1 classes and 2 folders.
[2017.09.17-09.12.42:330][  0]LogSlate: Took 0.000212 seconds to synchronously load lazily loaded font '../../../Engine/Content/Slate/Fonts/Roboto-Regular.ttf' (155K)
[2017.09.17-09.12.42:332][  0]LogSlate: Took 0.000138 seconds to synchronously load lazily loaded font '../../../Engine/Content/Slate/Fonts/Roboto-Bold.ttf' (160K)
[2017.09.17-09.12.42:337][  0]LogSlate: Took 0.000186 seconds to synchronously load lazily loaded font '../../../Engine/Content/Editor/Slate/Fonts/FontAwesome.ttf' (139K)
[2017.09.17-09.12.42:414][  0]LogRenderer: Reallocating scene render targets to support 1208x452 Format 26 NumSamples 1 (Frame:1).
[2017.09.17-09.12.42:536][  0]LogContentBrowser: Native class hierarchy updated for 'HierarchicalLODOutliner' in 0.0005 seconds. Added 1 classes and 2 folders.
[2017.09.17-09.12.42:536][  0]LogLoad: (Engine Initialization) Total time: 12.15 seconds
[2017.09.17-09.12.42:536][  0]LogLoad: (Engine Initialization) Total Blueprint compile time: 0.00 seconds
[2017.09.17-09.12.42:536][  0]LogExternalProfiler: Found external profiler: VSPerf
[2017.09.17-09.12.42:536][  0]LogExternalProfiler: Using external profiler: VSPerf
[2017.09.17-09.12.42:546][  0]LogWindowsTextInputMethodSystem: Display: IME system now deactivated.
[2017.09.17-09.12.42:548][  0]LogOcInput: OculusInput is initialized
[2017.09.17-09.12.42:565][  0]LogAssetRegistry: Asset discovery search completed in 7.9303 seconds
[2017.09.17-09.12.42:566][  0]LogCollectionManager: Rebuilt the object cache for 0 collections in 0.000001 seconds (found 0 objects)
[2017.09.17-09.12.42:566][  0]LogCollectionManager: Fixed up redirectors for 0 collections in 0.000028 seconds (updated 0 objects)
[2017.09.17-09.12.42:569][  0]LogContentStreaming: Texture pool size now 1000 MB
[2017.09.17-09.12.42:616][  0]LogSlate: Took 0.000165 seconds to synchronously load lazily loaded font '../../../Engine/Content/Slate/Fonts/Roboto-Light.ttf' (159K)
[2017.09.17-09.12.48:885][744]LogSlate: Took 0.000166 seconds to synchronously load lazily loaded font '../../../Engine/Content/Slate/Fonts/Roboto-Light.ttf' (159K)
[2017.09.17-09.12.49:066][744]LogMaterial: Missing cached shader map for material CrowdWizA, compiling. 
[2017.09.17-09.12.49:098][744]LogMaterial: Missing cached shader map for material CrowdWizSlyth, compiling. 
[2017.09.17-09.12.49:127][744]LogMaterial: Missing cached shader map for material M_Grass01, compiling. 
[2017.09.17-09.12.49:153][744]LogMaterial: Missing cached shader map for material M_Env_Plains_Mountain01, compiling. 
[2017.09.17-09.12.49:176][744]LogMaterial: Missing cached shader map for material M_Pitch_Wood, compiling. 
[2017.09.17-09.12.49:210][744]LogMaterial: Missing cached shader map for material Quad01, compiling. 
[2017.09.17-09.12.49:227][744]LogMaterial: Missing cached shader map for material Transp, compiling. 
[2017.09.17-09.12.49:310][744]LogMaterial: Missing cached shader map for material M_Pitch_Seats, compiling. 
[2017.09.17-09.12.49:358][744]LogMaterial: Missing cached shader map for material M_Tower, compiling. 
[2017.09.17-09.12.49:402][744]LogMaterial: Missing cached shader map for material FlagMat, compiling. 
[2017.09.17-09.12.49:507][744]LogMaterial: Missing cached shader map for material M_Pitch_Scaffold, compiling. 
[2017.09.17-09.12.49:533][744]LogAIModule: Creating AISystem for world QuidditchMap01
[2017.09.17-09.12.49:554][744]Cmd: MAP LOAD FILE="D:/VRHackathon/VRQuidditch/Content/QuidditchMap01.umap" TEMPLATE=0 SHOWPROGRESS=1 FEATURELEVEL=3
[2017.09.17-09.12.49:555][744]LightingResults: New page: Lighting Build
[2017.09.17-09.12.49:555][744]LoadErrors: New page: Loading map: QuidditchMap01.umap
[2017.09.17-09.12.49:556][744]MapCheck: New page: Map Check
[2017.09.17-09.12.49:556][744]LightingResults: New page: Lighting Build
[2017.09.17-09.12.49:569][744]LogSkeletalMesh: USkeletalMeshComponent::InitArticulated : Could not find root physics body: '/Game/QuidditchMap01.QuidditchMap01:PersistentLevel.SK_CrowdA_2.SkeletalMeshComponent0'
[2017.09.17-09.12.49:569][744]LogSkeletalMesh: USkeletalMeshComponent::InitArticulated : Could not find root physics body: '/Game/QuidditchMap01.QuidditchMap01:PersistentLevel.SK_CrowdB_5.SkeletalMeshComponent0'
[2017.09.17-09.12.49:573][744]LogEditorServer: Finished looking for orphan Actors (0.000 secs)
[2017.09.17-09.12.49:614][744]Cmd: MAP CHECKDEP NOCLEARLOG
[2017.09.17-09.12.49:676][744]MapCheck: Map check complete: 0 Error(s), 0 Warning(s), took 62.015ms to complete.
[2017.09.17-09.12.49:677][744]LogFileHelpers: Loading map 'QuidditchMap01' took 0.123
[2017.09.17-09.12.53:287][130]LogRenderer: Reallocating scene render targets to support 1208x456 Format 26 NumSamples 1 (Frame:369).
[2017.09.17-09.12.53:326][131]LogRenderer: Reallocating scene render targets to support 1208x464 Format 26 NumSamples 1 (Frame:371).
[2017.09.17-09.12.53:368][132]LogRenderer: Reallocating scene render targets to support 1208x476 Format 26 NumSamples 1 (Frame:373).
[2017.09.17-09.12.53:418][133]LogRenderer: Reallocating scene render targets to support 1208x496 Format 26 NumSamples 1 (Frame:375).
[2017.09.17-09.12.53:497][134]LogRenderer: Reallocating scene render targets to support 1208x516 Format 26 NumSamples 1 (Frame:377).
[2017.09.17-09.12.53:556][135]LogRenderer: Reallocating scene render targets to support 1208x556 Format 26 NumSamples 1 (Frame:379).
[2017.09.17-09.12.53:621][136]LogRenderer: Reallocating scene render targets to support 1208x584 Format 26 NumSamples 1 (Frame:381).
[2017.09.17-09.12.53:694][137]LogRenderer: Reallocating scene render targets to support 1208x628 Format 26 NumSamples 1 (Frame:383).
[2017.09.17-09.12.53:762][138]LogRenderer: Reallocating scene render targets to support 1208x652 Format 26 NumSamples 1 (Frame:385).
[2017.09.17-09.12.53:823][139]LogRenderer: Reallocating scene render targets to support 1208x668 Format 26 NumSamples 1 (Frame:387).
[2017.09.17-09.12.53:898][140]LogRenderer: Reallocating scene render targets to support 1208x680 Format 26 NumSamples 1 (Frame:389).
[2017.09.17-09.12.53:954][141]LogRenderer: Reallocating scene render targets to support 1208x696 Format 26 NumSamples 1 (Frame:391).
[2017.09.17-09.12.54:025][142]LogRenderer: Reallocating scene render targets to support 1208x708 Format 26 NumSamples 1 (Frame:393).
[2017.09.17-09.14.05:652][337]LogEditorViewport: Clicking on Actor (LMB): StaticMeshActor (SM_Pitch01_PitchMain2)
[2017.09.17-09.14.06:237][399]Cmd: ACTOR SELECT ALL
[2017.09.17-09.14.08:884][715]Cmd: EDIT COPY
[2017.09.17-09.14.19:441][966]LogAIModule: Creating AISystem for world Pitch
[2017.09.17-09.14.19:454][966]Cmd: MAP LOAD FILE="D:/VRHackathon/VRQuidditch/Content/Maps/Pitch.umap" TEMPLATE=0 SHOWPROGRESS=1 FEATURELEVEL=3
[2017.09.17-09.14.19:454][966]LightingResults: New page: Lighting Build
[2017.09.17-09.14.19:454][966]LoadErrors: New page: Loading map: Pitch.umap
[2017.09.17-09.14.19:456][966]MapCheck: New page: Map Check
[2017.09.17-09.14.19:456][966]LightingResults: New page: Lighting Build
[2017.09.17-09.14.19:467][966]LogEditorServer: Finished looking for orphan Actors (0.000 secs)
[2017.09.17-09.14.19:494][966]Cmd: MAP CHECKDEP NOCLEARLOG
[2017.09.17-09.14.19:538][966]MapCheck: Map check complete: 0 Error(s), 0 Warning(s), took 43.754ms to complete.
[2017.09.17-09.14.19:538][966]LogFileHelpers: Loading map 'Pitch' took 0.085
[2017.09.17-09.14.25:122][633]Cmd: EDIT PASTE
[2017.09.17-09.14.25:157][633]LogSkeletalMesh: USkeletalMeshComponent::InitArticulated : Could not find root physics body: '/Game/Maps/Pitch.Pitch:PersistentLevel.SK_CrowdA_2.SkeletalMeshComponent0'
[2017.09.17-09.14.25:157][633]LogSkeletalMesh: USkeletalMeshComponent::InitArticulated : Could not find root physics body: '/Game/Maps/Pitch.Pitch:PersistentLevel.SK_CrowdA_2.SkeletalMeshComponent0'
[2017.09.17-09.14.25:157][633]LogSkeletalMesh: USkeletalMeshComponent::InitArticulated : Could not find root physics body: '/Game/Maps/Pitch.Pitch:PersistentLevel.SK_CrowdB_5.SkeletalMeshComponent0'
[2017.09.17-09.14.25:157][633]LogSkeletalMesh: USkeletalMeshComponent::InitArticulated : Could not find root physics body: '/Game/Maps/Pitch.Pitch:PersistentLevel.SK_CrowdB_5.SkeletalMeshComponent0'
[2017.09.17-09.14.25:173][633]LogNavigationPoint: PostEditMove Clear paths rebuilt
[2017.09.17-09.14.25:177][633]LogSkeletalMesh: USkeletalMeshComponent::InitArticulated : Could not find root physics body: '/Game/Maps/Pitch.Pitch:PersistentLevel.SK_CrowdA_2.SkeletalMeshComponent0'
[2017.09.17-09.14.25:178][633]LogSkeletalMesh: USkeletalMeshComponent::InitArticulated : Could not find root physics body: '/Game/Maps/Pitch.Pitch:PersistentLevel.SK_CrowdB_5.SkeletalMeshComponent0'
[2017.09.17-09.14.37:199][ 47]LogNavigationPoint: PostEditMove Clear paths rebuilt
[2017.09.17-09.14.45:965][ 63]LogNavigationPoint: PostEditMove Clear paths rebuilt
[2017.09.17-09.14.51:089][644]LogNavigationPoint: PostEditMove Clear paths rebuilt
[2017.09.17-09.14.56:043][210]LogNavigationPoint: PostEditMove Clear paths rebuilt
[2017.09.17-09.14.58:544][508]LogNavigationPoint: PostEditMove Clear paths rebuilt
[2017.09.17-09.15.04:333][201]LogNavigationPoint: PostEditMove Clear paths rebuilt
[2017.09.17-09.15.20:817][139]LogNavigationPoint: PostEditMove Clear paths rebuilt
[2017.09.17-09.15.21:911][268]LogEditorViewport: Clicking on Actor (LMB): StaticMeshActor (frozen_Room)
[2017.09.17-09.15.24:326][552]Cmd: DELETE
[2017.09.17-09.15.24:326][552]Cmd: ACTOR DELETE
[2017.09.17-09.15.24:326][552]LogEditorActor: Deleted Actor: StaticMeshActor
[2017.09.17-09.15.24:338][552]LogEditorActor: Deleted 1 Actors (0.013 secs)
[2017.09.17-09.15.25:680][713]LogEditorViewport: Clicking on Actor (LMB): StaticMeshActor (Plane)
[2017.09.17-09.15.27:188][889]Cmd: TRANSACTION UNDO
[2017.09.17-09.15.27:188][889]LogEditorTransaction: Undo Clicking on Actors
[2017.09.17-09.15.27:202][889]LogSlate: Took 0.000175 seconds to synchronously load lazily loaded font '../../../Engine/Content/Slate/Fonts/Roboto-Light.ttf' (159K)
[2017.09.17-09.15.27:545][930]Cmd: TRANSACTION UNDO
[2017.09.17-09.15.27:545][930]LogEditorTransaction: Undo Delete Actors
[2017.09.17-09.15.31:685][421]LogEditorViewport: Clicking on Actor (LMB): StaticMeshActor (Cube2)
[2017.09.17-09.15.51:325][755]LogEditorViewport: Clicking on Actor (LMB): StaticMeshActor (Plane)
[2017.09.17-09.16.15:714][675]LogEditorViewport: Clicking on Actor (LMB): StaticMeshActor (Shape_Torus2)
[2017.09.17-09.16.29:153][247]LogEditorViewport: Clicking on Actor (LMB): BP_Sky_Sphere_C (Sky Sphere2)
[2017.09.17-09.16.30:786][439]Cmd: DELETE
[2017.09.17-09.16.30:787][439]Cmd: ACTOR DELETE
[2017.09.17-09.16.30:787][439]LogEditorActor: Deleted Actor: BP_Sky_Sphere_C
[2017.09.17-09.16.30:795][439]LogEditorActor: Deleted 1 Actors (0.008 secs)
[2017.09.17-09.16.37:012][182]LogEditorActor: Deleted Actor: SkyLight
[2017.09.17-09.16.37:020][182]LogEditorActor: Deleted 1 Actors (0.008 secs)
[2017.09.17-09.17.02:016][165]LogPlayLevel: PlayLevel: No blueprints needed recompiling
[2017.09.17-09.17.02:016][165]LogOnline: Display: OSS: FOnlineSubsystemNull::Shutdown()
[2017.09.17-09.17.02:016][165]LogOnline: Display: OSS: FOnlineAsyncTaskManager::Stop() ActiveTask:0000000000000000 Tasks[0/0]
[2017.09.17-09.17.02:028][165]LogOnline: Display: OSS: FOnlineAsyncTaskManager::Exit() started
[2017.09.17-09.17.02:028][165]LogOnline: Display: OSS: FOnlineAsyncTaskManager::Exit() finished
[2017.09.17-09.17.02:028][165]PIE: New page: SIE session: Pitch (Sep 16, 2017, 7:17:02 PM)
[2017.09.17-09.17.02:054][165]LogPlayLevel: Creating play world package: /Game/Maps/UEDPIE_0_Pitch
[2017.09.17-09.17.02:059][165]LogPlayLevel: PIE: StaticDuplicateObject took: (0.004463s)
[2017.09.17-09.17.02:059][165]LogAIModule: Creating AISystem for world Pitch
[2017.09.17-09.17.02:060][165]LogPlayLevel: PIE: World Init took: (0.000575s)
[2017.09.17-09.17.02:060][165]LogPlayLevel: PIE: Created PIE world by copying editor world from /Game/Maps/Pitch.Pitch to /Game/Maps/UEDPIE_0_Pitch.Pitch (0.005258s)
[2017.09.17-09.17.02:086][165]LogInit: XAudio2 using 'ASUS VS228-8 (NVIDIA High Definition Audio)' : 2 channels at 48 kHz using 16 bits per sample (channel mask 0x3)
[2017.09.17-09.17.02:093][165]LogInit: FAudioDevice initialized.
[2017.09.17-09.17.02:610][165]LogLoad: Game class is 'NetworkingGameMode_C'
[2017.09.17-09.17.02:613][165]LogSkeletalMesh: USkeletalMeshComponent::InitArticulated : Could not find root physics body: '/Game/Maps/UEDPIE_0_Pitch.Pitch:PersistentLevel.SK_CrowdA_2.SkeletalMeshComponent0'
[2017.09.17-09.17.02:613][165]LogSkeletalMesh: USkeletalMeshComponent::InitArticulated : Could not find root physics body: '/Game/Maps/UEDPIE_0_Pitch.Pitch:PersistentLevel.SK_CrowdB_5.SkeletalMeshComponent0'
[2017.09.17-09.17.02:617][165]LogWorld: Bringing World /Game/Maps/UEDPIE_0_Pitch.Pitch up for play (max tick rate 0) at 2017.09.17-02.17.02
[2017.09.17-09.17.02:618][165]LogWorld: Bringing up level for play took: 0.006195
[2017.09.17-09.17.02:673][165]LogContentBrowser: Native class hierarchy updated for 'MovieSceneCapture' in 0.0006 seconds. Added 11 classes and 0 folders.
[2017.09.17-09.17.02:673][165]LogGameMode: Display: Match State Changed from EnteringMap to WaitingToStart
[2017.09.17-09.17.02:674][165]LogGameState: Match State Changed from EnteringMap to WaitingToStart
[2017.09.17-09.17.02:674][165]PIE: Play in editor start time for /Game/Maps/UEDPIE_0_Pitch -0.137
[2017.09.17-09.17.11:180][ 71]LogOnline: Display: OSS: FOnlineSubsystemNull::Shutdown()
[2017.09.17-09.17.11:180][ 71]LogOnline: Display: OSS: FOnlineAsyncTaskManager::Stop() ActiveTask:0000000000000000 Tasks[0/0]
[2017.09.17-09.17.11:180][ 71]LogOnline: Display: OSS: FOnlineAsyncTaskManager::Exit() started
[2017.09.17-09.17.11:180][ 71]LogOnline: Display: OSS: FOnlineAsyncTaskManager::Exit() finished
[2017.09.17-09.17.11:180][ 71]LogPlayLevel: Display: Shutting down PIE online subsystems
[2017.09.17-09.17.11:255][ 78]LogPlayLevel: Display: Destroying online subsystem :Context_3
[2017.09.17-09.17.11:255][ 78]LogOnline: Display: OSS: FOnlineSubsystemNull::Shutdown()
[2017.09.17-09.17.20:391][174]LogTemp: Repeating last play command: Simulate
[2017.09.17-09.17.20:403][174]LogPlayLevel: PlayLevel: No blueprints needed recompiling
[2017.09.17-09.17.20:403][174]PIE: New page: SIE session: Pitch (Sep 16, 2017, 7:17:20 PM)
[2017.09.17-09.17.20:403][174]LogPlayLevel: Creating play world package: /Game/Maps/UEDPIE_0_Pitch
[2017.09.17-09.17.20:408][174]LogPlayLevel: PIE: StaticDuplicateObject took: (0.004857s)
[2017.09.17-09.17.20:409][174]LogAIModule: Creating AISystem for world Pitch
[2017.09.17-09.17.20:409][174]LogPlayLevel: PIE: World Init took: (0.000472s)
[2017.09.17-09.17.20:409][174]LogPlayLevel: PIE: Created PIE world by copying editor world from /Game/Maps/Pitch.Pitch to /Game/Maps/UEDPIE_0_Pitch.Pitch (0.005529s)
[2017.09.17-09.17.20:434][174]LogInit: XAudio2 using 'ASUS VS228-8 (NVIDIA High Definition Audio)' : 2 channels at 48 kHz using 16 bits per sample (channel mask 0x3)
[2017.09.17-09.17.20:441][174]LogInit: FAudioDevice initialized.
[2017.09.17-09.17.20:470][174]LogLoad: Game class is 'NetworkingGameMode_C'
[2017.09.17-09.17.20:472][174]LogSkeletalMesh: USkeletalMeshComponent::InitArticulated : Could not find root physics body: '/Game/Maps/UEDPIE_0_Pitch.Pitch:PersistentLevel.SK_CrowdA_2.SkeletalMeshComponent0'
[2017.09.17-09.17.20:472][174]LogSkeletalMesh: USkeletalMeshComponent::InitArticulated : Could not find root physics body: '/Game/Maps/UEDPIE_0_Pitch.Pitch:PersistentLevel.SK_CrowdB_5.SkeletalMeshComponent0'
[2017.09.17-09.17.20:476][174]LogWorld: Bringing World /Game/Maps/UEDPIE_0_Pitch.Pitch up for play (max tick rate 0) at 2017.09.17-02.17.20
[2017.09.17-09.17.20:477][174]LogWorld: Bringing up level for play took: 0.005877
[2017.09.17-09.17.20:488][174]LogGameMode: Display: Match State Changed from EnteringMap to WaitingToStart
[2017.09.17-09.17.20:489][174]LogGameState: Match State Changed from EnteringMap to WaitingToStart
[2017.09.17-09.17.20:489][174]PIE: Play in editor start time for /Game/Maps/UEDPIE_0_Pitch -0.322
[2017.09.17-09.17.31:867][396]LogOnline: Display: OSS: FOnlineSubsystemNull::Shutdown()
[2017.09.17-09.17.31:867][396]LogOnline: Display: OSS: FOnlineAsyncTaskManager::Stop() ActiveTask:0000000000000000 Tasks[0/0]
[2017.09.17-09.17.31:868][396]LogOnline: Display: OSS: FOnlineAsyncTaskManager::Exit() started
[2017.09.17-09.17.31:868][396]LogOnline: Display: OSS: FOnlineAsyncTaskManager::Exit() finished
[2017.09.17-09.17.31:868][396]LogPlayLevel: Display: Shutting down PIE online subsystems
[2017.09.17-09.17.31:940][403]LogPlayLevel: Display: Destroying online subsystem :Context_4
[2017.09.17-09.17.31:940][403]LogOnline: Display: OSS: FOnlineSubsystemNull::Shutdown()
[2017.09.17-09.17.58:407][561]LogTemp: Repeating last play command: Simulate
[2017.09.17-09.17.58:420][561]LogPlayLevel: PlayLevel: No blueprints needed recompiling
[2017.09.17-09.17.58:420][561]PIE: New page: SIE session: Pitch (Sep 16, 2017, 7:17:58 PM)
[2017.09.17-09.17.58:421][561]LogPlayLevel: Creating play world package: /Game/Maps/UEDPIE_0_Pitch
[2017.09.17-09.17.58:425][561]LogPlayLevel: PIE: StaticDuplicateObject took: (0.004442s)
[2017.09.17-09.17.58:426][561]LogAIModule: Creating AISystem for world Pitch
[2017.09.17-09.17.58:426][561]LogPlayLevel: PIE: World Init took: (0.000563s)
[2017.09.17-09.17.58:426][561]LogPlayLevel: PIE: Created PIE world by copying editor world from /Game/Maps/Pitch.Pitch to /Game/Maps/UEDPIE_0_Pitch.Pitch (0.005264s)
[2017.09.17-09.17.58:454][561]LogInit: XAudio2 using 'ASUS VS228-8 (NVIDIA High Definition Audio)' : 2 channels at 48 kHz using 16 bits per sample (channel mask 0x3)
[2017.09.17-09.17.58:460][561]LogInit: FAudioDevice initialized.
[2017.09.17-09.17.58:491][561]LogLoad: Game class is 'NetworkingGameMode_C'
[2017.09.17-09.17.58:493][561]LogSkeletalMesh: USkeletalMeshComponent::InitArticulated : Could not find root physics body: '/Game/Maps/UEDPIE_0_Pitch.Pitch:PersistentLevel.SK_CrowdA_2.SkeletalMeshComponent0'
[2017.09.17-09.17.58:493][561]LogSkeletalMesh: USkeletalMeshComponent::InitArticulated : Could not find root physics body: '/Game/Maps/UEDPIE_0_Pitch.Pitch:PersistentLevel.SK_CrowdB_5.SkeletalMeshComponent0'
[2017.09.17-09.17.58:497][561]LogWorld: Bringing World /Game/Maps/UEDPIE_0_Pitch.Pitch up for play (max tick rate 0) at 2017.09.17-02.17.58
[2017.09.17-09.17.58:498][561]LogWorld: Bringing up level for play took: 0.006024
[2017.09.17-09.17.58:509][561]LogGameMode: Display: Match State Changed from EnteringMap to WaitingToStart
[2017.09.17-09.17.58:509][561]LogGameState: Match State Changed from EnteringMap to WaitingToStart
[2017.09.17-09.17.58:510][561]PIE: Play in editor start time for /Game/Maps/UEDPIE_0_Pitch -0.301
[2017.09.17-09.18.00:192][746]LogOnline: Display: OSS: FOnlineSubsystemNull::Shutdown()
[2017.09.17-09.18.00:192][746]LogOnline: Display: OSS: FOnlineAsyncTaskManager::Stop() ActiveTask:0000000000000000 Tasks[0/0]
[2017.09.17-09.18.00:192][746]LogOnline: Display: OSS: FOnlineAsyncTaskManager::Exit() started
[2017.09.17-09.18.00:192][746]LogOnline: Display: OSS: FOnlineAsyncTaskManager::Exit() finished
[2017.09.17-09.18.00:192][746]LogPlayLevel: Display: Shutting down PIE online subsystems
[2017.09.17-09.18.00:265][753]LogPlayLevel: Display: Destroying online subsystem :Context_5
[2017.09.17-09.18.00:265][753]LogOnline: Display: OSS: FOnlineSubsystemNull::Shutdown()
[2017.09.17-09.18.10:881][ 21]LogTemp: Repeating last play command: Simulate
[2017.09.17-09.18.10:893][ 21]LogPlayLevel: PlayLevel: No blueprints needed recompiling
[2017.09.17-09.18.10:894][ 21]PIE: New page: SIE session: Pitch (Sep 16, 2017, 7:18:10 PM)
[2017.09.17-09.18.10:894][ 21]LogPlayLevel: Creating play world package: /Game/Maps/UEDPIE_0_Pitch
[2017.09.17-09.18.10:899][ 21]LogPlayLevel: PIE: StaticDuplicateObject took: (0.004573s)
[2017.09.17-09.18.10:900][ 21]LogAIModule: Creating AISystem for world Pitch
[2017.09.17-09.18.10:900][ 21]LogPlayLevel: PIE: World Init took: (0.000524s)
[2017.09.17-09.18.10:900][ 21]LogPlayLevel: PIE: Created PIE world by copying editor world from /Game/Maps/Pitch.Pitch to /Game/Maps/UEDPIE_0_Pitch.Pitch (0.005363s)
[2017.09.17-09.18.10:929][ 21]LogInit: XAudio2 using 'ASUS VS228-8 (NVIDIA High Definition Audio)' : 2 channels at 48 kHz using 16 bits per sample (channel mask 0x3)
[2017.09.17-09.18.10:935][ 21]LogInit: FAudioDevice initialized.
[2017.09.17-09.18.10:965][ 21]LogLoad: Game class is 'NetworkingGameMode_C'
[2017.09.17-09.18.10:967][ 21]LogSkeletalMesh: USkeletalMeshComponent::InitArticulated : Could not find root physics body: '/Game/Maps/UEDPIE_0_Pitch.Pitch:PersistentLevel.SK_CrowdA_2.SkeletalMeshComponent0'
[2017.09.17-09.18.10:967][ 21]LogSkeletalMesh: USkeletalMeshComponent::InitArticulated : Could not find root physics body: '/Game/Maps/UEDPIE_0_Pitch.Pitch:PersistentLevel.SK_CrowdB_5.SkeletalMeshComponent0'
[2017.09.17-09.18.10:971][ 21]LogWorld: Bringing World /Game/Maps/UEDPIE_0_Pitch.Pitch up for play (max tick rate 0) at 2017.09.17-02.18.10
[2017.09.17-09.18.10:971][ 21]LogWorld: Bringing up level for play took: 0.005840
[2017.09.17-09.18.10:983][ 21]LogGameMode: Display: Match State Changed from EnteringMap to WaitingToStart
[2017.09.17-09.18.10:983][ 21]LogGameState: Match State Changed from EnteringMap to WaitingToStart
[2017.09.17-09.18.10:984][ 21]PIE: Play in editor start time for /Game/Maps/UEDPIE_0_Pitch 0.173
[2017.09.17-09.18.14:078][356]LogOnline: Display: OSS: FOnlineSubsystemNull::Shutdown()
[2017.09.17-09.18.14:078][356]LogOnline: Display: OSS: FOnlineAsyncTaskManager::Stop() ActiveTask:0000000000000000 Tasks[0/0]
[2017.09.17-09.18.14:078][356]LogOnline: Display: OSS: FOnlineAsyncTaskManager::Exit() started
[2017.09.17-09.18.14:078][356]LogOnline: Display: OSS: FOnlineAsyncTaskManager::Exit() finished
[2017.09.17-09.18.14:078][356]LogPlayLevel: Display: Shutting down PIE online subsystems
[2017.09.17-09.18.14:151][363]LogPlayLevel: Display: Destroying online subsystem :Context_6
[2017.09.17-09.18.14:151][363]LogOnline: Display: OSS: FOnlineSubsystemNull::Shutdown()
[2017.09.17-09.18.17:945][818]LogTemp: Repeating last play command: Simulate
[2017.09.17-09.18.17:957][818]LogPlayLevel: PlayLevel: No blueprints needed recompiling
[2017.09.17-09.18.17:957][818]PIE: New page: SIE session: Pitch (Sep 16, 2017, 7:18:17 PM)
[2017.09.17-09.18.17:957][818]LogPlayLevel: Creating play world package: /Game/Maps/UEDPIE_0_Pitch
[2017.09.17-09.18.17:962][818]LogPlayLevel: PIE: StaticDuplicateObject took: (0.004386s)
[2017.09.17-09.18.17:962][818]LogAIModule: Creating AISystem for world Pitch
[2017.09.17-09.18.17:962][818]LogPlayLevel: PIE: World Init took: (0.000462s)
[2017.09.17-09.18.17:963][818]LogPlayLevel: PIE: Created PIE world by copying editor world from /Game/Maps/Pitch.Pitch to /Game/Maps/UEDPIE_0_Pitch.Pitch (0.005108s)
[2017.09.17-09.18.17:989][818]LogInit: XAudio2 using 'ASUS VS228-8 (NVIDIA High Definition Audio)' : 2 channels at 48 kHz using 16 bits per sample (channel mask 0x3)
[2017.09.17-09.18.17:995][818]LogInit: FAudioDevice initialized.
[2017.09.17-09.18.18:024][818]LogLoad: Game class is 'NetworkingGameMode_C'
[2017.09.17-09.18.18:026][818]LogSkeletalMesh: USkeletalMeshComponent::InitArticulated : Could not find root physics body: '/Game/Maps/UEDPIE_0_Pitch.Pitch:PersistentLevel.SK_CrowdA_2.SkeletalMeshComponent0'
[2017.09.17-09.18.18:026][818]LogSkeletalMesh: USkeletalMeshComponent::InitArticulated : Could not find root physics body: '/Game/Maps/UEDPIE_0_Pitch.Pitch:PersistentLevel.SK_CrowdB_5.SkeletalMeshComponent0'
[2017.09.17-09.18.18:030][818]LogWorld: Bringing World /Game/Maps/UEDPIE_0_Pitch.Pitch up for play (max tick rate 0) at 2017.09.17-02.18.18
[2017.09.17-09.18.18:031][818]LogWorld: Bringing up level for play took: 0.005818
[2017.09.17-09.18.18:043][818]LogGameMode: Display: Match State Changed from EnteringMap to WaitingToStart
[2017.09.17-09.18.18:043][818]LogGameState: Match State Changed from EnteringMap to WaitingToStart
[2017.09.17-09.18.18:043][818]PIE: Play in editor start time for /Game/Maps/UEDPIE_0_Pitch -0.768
[2017.09.17-09.18.18:816][902]LogEditorViewport: Clicking on Actor (LMB): StaticMeshActor (Plane)
[2017.09.17-09.18.22:979][384]LogOnline: Display: OSS: FOnlineSubsystemNull::Shutdown()
[2017.09.17-09.18.22:979][384]LogOnline: Display: OSS: FOnlineAsyncTaskManager::Stop() ActiveTask:0000000000000000 Tasks[0/0]
[2017.09.17-09.18.22:979][384]LogOnline: Display: OSS: FOnlineAsyncTaskManager::Exit() started
[2017.09.17-09.18.22:979][384]LogOnline: Display: OSS: FOnlineAsyncTaskManager::Exit() finished
[2017.09.17-09.18.22:979][384]LogPlayLevel: Display: Shutting down PIE online subsystems
[2017.09.17-09.18.23:044][390]LogPlayLevel: Display: Destroying online subsystem :Context_7
[2017.09.17-09.18.23:044][390]LogOnline: Display: OSS: FOnlineSubsystemNull::Shutdown()
[2017.09.17-09.18.29:801][198]LogSlate: Took 0.000253 seconds to synchronously load lazily loaded font '../../../Engine/Content/Editor/Slate/Fonts/Roboto-Italic.ttf' (157K)
[2017.09.17-09.18.32:226][488]LogTemp: Repeating last play command: Simulate
[2017.09.17-09.18.32:239][488]LogPlayLevel: PlayLevel: No blueprints needed recompiling
[2017.09.17-09.18.32:239][488]PIE: New page: SIE session: Pitch (Sep 16, 2017, 7:18:32 PM)
[2017.09.17-09.18.32:239][488]LogPlayLevel: Creating play world package: /Game/Maps/UEDPIE_0_Pitch
[2017.09.17-09.18.32:244][488]LogPlayLevel: PIE: StaticDuplicateObject took: (0.004662s)
[2017.09.17-09.18.32:245][488]LogAIModule: Creating AISystem for world Pitch
[2017.09.17-09.18.32:245][488]LogPlayLevel: PIE: World Init took: (0.000490s)
[2017.09.17-09.18.32:245][488]LogPlayLevel: PIE: Created PIE world by copying editor world from /Game/Maps/Pitch.Pitch to /Game/Maps/UEDPIE_0_Pitch.Pitch (0.005430s)
[2017.09.17-09.18.32:274][488]LogInit: XAudio2 using 'ASUS VS228-8 (NVIDIA High Definition Audio)' : 2 channels at 48 kHz using 16 bits per sample (channel mask 0x3)
[2017.09.17-09.18.32:280][488]LogInit: FAudioDevice initialized.
[2017.09.17-09.18.32:313][488]LogLoad: Game class is 'NetworkingGameMode_C'
[2017.09.17-09.18.32:315][488]LogSkeletalMesh: USkeletalMeshComponent::InitArticulated : Could not find root physics body: '/Game/Maps/UEDPIE_0_Pitch.Pitch:PersistentLevel.SK_CrowdA_2.SkeletalMeshComponent0'
[2017.09.17-09.18.32:315][488]LogSkeletalMesh: USkeletalMeshComponent::InitArticulated : Could not find root physics body: '/Game/Maps/UEDPIE_0_Pitch.Pitch:PersistentLevel.SK_CrowdB_5.SkeletalMeshComponent0'
[2017.09.17-09.18.32:319][488]LogWorld: Bringing World /Game/Maps/UEDPIE_0_Pitch.Pitch up for play (max tick rate 0) at 2017.09.17-02.18.32
[2017.09.17-09.18.32:320][488]LogWorld: Bringing up level for play took: 0.006048
[2017.09.17-09.18.32:331][488]LogGameMode: Display: Match State Changed from EnteringMap to WaitingToStart
[2017.09.17-09.18.32:332][488]LogGameState: Match State Changed from EnteringMap to WaitingToStart
[2017.09.17-09.18.32:332][488]PIE: Play in editor start time for /Game/Maps/UEDPIE_0_Pitch -0.479
[2017.09.17-09.18.38:336][119]LogOnline: Display: OSS: FOnlineSubsystemNull::Shutdown()
[2017.09.17-09.18.38:336][119]LogOnline: Display: OSS: FOnlineAsyncTaskManager::Stop() ActiveTask:0000000000000000 Tasks[0/0]
[2017.09.17-09.18.38:337][119]LogOnline: Display: OSS: FOnlineAsyncTaskManager::Exit() started
[2017.09.17-09.18.38:337][119]LogOnline: Display: OSS: FOnlineAsyncTaskManager::Exit() finished
[2017.09.17-09.18.38:337][119]LogPlayLevel: Display: Shutting down PIE online subsystems
[2017.09.17-09.18.38:410][126]LogPlayLevel: Display: Destroying online subsystem :Context_8
[2017.09.17-09.18.38:410][126]LogOnline: Display: OSS: FOnlineSubsystemNull::Shutdown()
[2017.09.17-09.18.45:770][  4]MapCheck: New page: Map Check
[2017.09.17-09.18.45:784][  4]LightingResults: New page: Lighting Build - Sep 16, 2017, 7:18:45 PM
[2017.09.17-09.18.45:784][  4]LogStaticLightingSystem: Warning: WorldSettings.bForceNoPrecomputedLighting is true, Skipping Lighting Build!
[2017.09.17-09.18.45:823][  4]LogEditorBuildUtils: Build time 0:00
[2017.09.17-09.19.10:676][851]MapCheck: New page: Map Check
[2017.09.17-09.19.10:689][851]LightingResults: New page: Lighting Build - Sep 16, 2017, 7:19:10 PM
[2017.09.17-09.19.10:689][851]LogStaticLightingSystem: Warning: WorldSettings.bForceNoPrecomputedLighting is true, Skipping Lighting Build!
[2017.09.17-09.19.10:729][851]LogEditorBuildUtils: Build time 0:00
[2017.09.17-09.19.24:294][470]LogAIModule: Creating AISystem for world Lobby
[2017.09.17-09.19.31:048][470]Cmd: OBJ SAVEPACKAGE PACKAGE="/Game/Maps/Pitch" FILE="D:/VRHackathon/VRQuidditch/Content/Maps/Pitch.umap" SILENT=true AUTOSAVING=false KEEPDIRTY=false
[2017.09.17-09.19.31:212][470]LogSavePackage: Save=109.30ms
[2017.09.17-09.19.31:212][470]LogSavePackage: Moving 'D:/VRHackathon/VRQuidditch/Saved/Pitch13BAF688453E6A863213758217EC5B23.tmp' to 'D:/VRHackathon/VRQuidditch/Content/Maps/Pitch.umap'
[2017.09.17-09.19.31:213][470]LogSavePackage: Display: Finished SavePackage D:/VRHackathon/VRQuidditch/Content/Maps/Pitch.umap
[2017.09.17-09.19.31:234][470]LogFileHelpers: Saving map 'Pitch' took 0.236
[2017.09.17-09.19.31:234][470]Cmd: OBJ SAVEPACKAGE PACKAGE="/Game/Maps/Pitch_BuiltData" FILE="D:/VRHackathon/VRQuidditch/Content/Maps/Pitch_BuiltData.uasset" SILENT=true
[2017.09.17-09.19.31:237][470]LogSavePackage: Save=2.86ms
[2017.09.17-09.19.31:237][470]LogSavePackage: Moving 'D:/VRHackathon/VRQuidditch/Saved/Pitch_BuiltDataE6C0D394408ECA6BB6C35AAE48FC2752.tmp' to 'D:/VRHackathon/VRQuidditch/Content/Maps/Pitch_BuiltData.uasset'
[2017.09.17-09.19.31:238][470]LogSavePackage: Display: Finished SavePackage D:/VRHackathon/VRQuidditch/Content/Maps/Pitch_BuiltData.uasset
[2017.09.17-09.19.31:239][470]Cmd: MAP LOAD FILE="D:/VRHackathon/VRQuidditch/Content/Maps/Lobby.umap" TEMPLATE=0 SHOWPROGRESS=1 FEATURELEVEL=3
[2017.09.17-09.19.31:239][470]LightingResults: New page: Lighting Build
[2017.09.17-09.19.31:240][470]LoadErrors: New page: Loading map: Lobby.umap
[2017.09.17-09.19.31:241][470]MapCheck: New page: Map Check
[2017.09.17-09.19.31:241][470]LightingResults: New page: Lighting Build
[2017.09.17-09.19.31:254][470]LogEditorServer: Finished looking for orphan Actors (0.000 secs)
[2017.09.17-09.19.31:283][470]Cmd: MAP CHECKDEP NOCLEARLOG
[2017.09.17-09.19.31:333][470]MapCheck: Map check complete: 0 Error(s), 0 Warning(s), took 49.784ms to complete.
[2017.09.17-09.19.31:333][470]LogFileHelpers: Loading map 'Lobby' took 0.094
[2017.09.17-09.19.31:334][470]LogSlate: Took 0.000138 seconds to synchronously load lazily loaded font '../../../Engine/Content/Slate/Fonts/Roboto-Regular.ttf' (155K)
[2017.09.17-09.19.35:159][927]LogTemp: Repeating last play command: Simulate
[2017.09.17-09.19.35:171][927]LogBlueprintUserMessages: Early PlayInEditor Detection: Level '/Game/Maps/Lobby.Lobby:PersistentLevel' has LevelScriptBlueprint '/Game/Maps/Lobby.Lobby:PersistentLevel.Lobby' with GeneratedClass '/Game/Maps/Lobby.Lobby_C' with ClassGeneratedBy '/Game/Maps/Lobby.Lobby:PersistentLevel.Lobby'
[2017.09.17-09.19.35:171][927]LogPlayLevel: PlayLevel: No blueprints needed recompiling
[2017.09.17-09.19.35:171][927]PIE: New page: SIE session: Lobby (Sep 16, 2017, 7:19:35 PM)
[2017.09.17-09.19.35:171][927]LogPlayLevel: Creating play world package: /Game/Maps/UEDPIE_0_Lobby
[2017.09.17-09.19.35:173][927]LogPlayLevel: PIE: StaticDuplicateObject took: (0.002057s)
[2017.09.17-09.19.35:174][927]LogAIModule: Creating AISystem for world Lobby
[2017.09.17-09.19.35:174][927]LogPlayLevel: PIE: World Init took: (0.000872s)
[2017.09.17-09.19.35:174][927]LogPlayLevel: PIE: Created PIE world by copying editor world from /Game/Maps/Lobby.Lobby to /Game/Maps/UEDPIE_0_Lobby.Lobby (0.003131s)
[2017.09.17-09.19.35:200][927]LogInit: XAudio2 using 'ASUS VS228-8 (NVIDIA High Definition Audio)' : 2 channels at 48 kHz using 16 bits per sample (channel mask 0x3)
[2017.09.17-09.19.35:206][927]LogInit: FAudioDevice initialized.
[2017.09.17-09.19.35:233][927]LogLoad: Game class is 'NetworkingGameMode_C'
[2017.09.17-09.19.35:235][927]LogWorld: Bringing World /Game/Maps/UEDPIE_0_Lobby.Lobby up for play (max tick rate 0) at 2017.09.17-02.19.35
[2017.09.17-09.19.35:236][927]LogWorld: Bringing up level for play took: 0.001372
[2017.09.17-09.19.35:247][927]LogGameMode: Display: Match State Changed from EnteringMap to WaitingToStart
[2017.09.17-09.19.35:248][927]LogGameState: Match State Changed from EnteringMap to WaitingToStart
[2017.09.17-09.19.35:248][927]PIE: Play in editor start time for /Game/Maps/UEDPIE_0_Lobby 0.437
[2017.09.17-09.19.35:250][927]LogBlueprintUserMessages: Late PlayInEditor Detection: Level '/Game/Maps/Lobby.Lobby:PersistentLevel' has LevelScriptBlueprint '/Game/Maps/Lobby.Lobby:PersistentLevel.Lobby' with GeneratedClass '/Game/Maps/Lobby.Lobby_C' with ClassGeneratedBy '/Game/Maps/Lobby.Lobby:PersistentLevel.Lobby'
[2017.09.17-09.20.01:133][ 32]LogBlueprintUserMessages: Early EndPlayMap Detection: Level '/Game/Maps/Lobby.Lobby:PersistentLevel' has LevelScriptBlueprint '/Game/Maps/Lobby.Lobby:PersistentLevel.Lobby' with GeneratedClass '/Game/Maps/Lobby.Lobby_C' with ClassGeneratedBy '/Game/Maps/Lobby.Lobby:PersistentLevel.Lobby'
[2017.09.17-09.20.01:167][ 32]LogOnline: Display: OSS: FOnlineSubsystemNull::Shutdown()
[2017.09.17-09.20.01:167][ 32]LogOnline: Display: OSS: FOnlineAsyncTaskManager::Stop() ActiveTask:0000000000000000 Tasks[0/0]
[2017.09.17-09.20.01:168][ 32]LogOnline: Display: OSS: FOnlineAsyncTaskManager::Exit() started
[2017.09.17-09.20.01:168][ 32]LogOnline: Display: OSS: FOnlineAsyncTaskManager::Exit() finished
[2017.09.17-09.20.01:168][ 32]LogPlayLevel: Display: Shutting down PIE online subsystems
[2017.09.17-09.20.01:168][ 32]LogBlueprintUserMessages: Late EndPlayMap Detection: Level '/Game/Maps/Lobby.Lobby:PersistentLevel' has LevelScriptBlueprint '/Game/Maps/Lobby.Lobby:PersistentLevel.Lobby' with GeneratedClass '/Game/Maps/Lobby.Lobby_C' with ClassGeneratedBy '/Game/Maps/Lobby.Lobby:PersistentLevel.Lobby'
[2017.09.17-09.20.01:234][ 38]LogPlayLevel: Display: Destroying online subsystem :Context_9
[2017.09.17-09.20.01:234][ 38]LogOnline: Display: OSS: FOnlineSubsystemNull::Shutdown()
[2017.09.17-09.20.09:680][ 48]LogAIModule: Creating AISystem for world NetworkingStart
[2017.09.17-09.20.09:691][ 48]Cmd: MAP LOAD FILE="D:/VRHackathon/VRQuidditch/Content/Maps/NetworkingStart.umap" TEMPLATE=0 SHOWPROGRESS=1 FEATURELEVEL=3
[2017.09.17-09.20.09:691][ 48]LightingResults: New page: Lighting Build
[2017.09.17-09.20.09:691][ 48]LoadErrors: New page: Loading map: NetworkingStart.umap
[2017.09.17-09.20.09:692][ 48]MapCheck: New page: Map Check
[2017.09.17-09.20.09:692][ 48]LightingResults: New page: Lighting Build
[2017.09.17-09.20.09:704][ 48]LogEditorServer: Finished looking for orphan Actors (0.000 secs)
[2017.09.17-09.20.09:735][ 48]Cmd: MAP CHECKDEP NOCLEARLOG
[2017.09.17-09.20.09:788][ 48]MapCheck: Map check complete: 0 Error(s), 0 Warning(s), took 52.286ms to complete.
[2017.09.17-09.20.09:788][ 48]LogFileHelpers: Loading map 'NetworkingStart' took 0.098
[2017.09.17-09.20.12:503][369]LogAIModule: Creating AISystem for world Lobby
[2017.09.17-09.20.12:516][369]Cmd: MAP LOAD FILE="D:/VRHackathon/VRQuidditch/Content/Maps/Lobby.umap" TEMPLATE=0 SHOWPROGRESS=1 FEATURELEVEL=3
[2017.09.17-09.20.12:516][369]LightingResults: New page: Lighting Build
[2017.09.17-09.20.12:517][369]LoadErrors: New page: Loading map: Lobby.umap
[2017.09.17-09.20.12:517][369]MapCheck: New page: Map Check
[2017.09.17-09.20.12:517][369]LightingResults: New page: Lighting Build
[2017.09.17-09.20.12:531][369]LogEditorServer: Finished looking for orphan Actors (0.000 secs)
[2017.09.17-09.20.12:564][369]Cmd: MAP CHECKDEP NOCLEARLOG
[2017.09.17-09.20.12:615][369]MapCheck: Map check complete: 0 Error(s), 0 Warning(s), took 51.547ms to complete.
[2017.09.17-09.20.12:615][369]LogFileHelpers: Loading map 'Lobby' took 0.100
[2017.09.17-09.20.18:396][ 54]LogTemp: Repeating last play command: Simulate
[2017.09.17-09.20.18:409][ 54]LogBlueprintUserMessages: Early PlayInEditor Detection: Level '/Game/Maps/Lobby.Lobby:PersistentLevel' has LevelScriptBlueprint '/Game/Maps/Lobby.Lobby:PersistentLevel.Lobby' with GeneratedClass '/Game/Maps/Lobby.Lobby_C' with ClassGeneratedBy '/Game/Maps/Lobby.Lobby:PersistentLevel.Lobby'
[2017.09.17-09.20.18:410][ 54]LogPlayLevel: PlayLevel: No blueprints needed recompiling
[2017.09.17-09.20.18:410][ 54]PIE: New page: SIE session: Lobby (Sep 16, 2017, 7:20:18 PM)
[2017.09.17-09.20.18:410][ 54]LogPlayLevel: Creating play world package: /Game/Maps/UEDPIE_0_Lobby
[2017.09.17-09.20.18:413][ 54]LogPlayLevel: PIE: StaticDuplicateObject took: (0.002607s)
[2017.09.17-09.20.18:414][ 54]LogAIModule: Creating AISystem for world Lobby
[2017.09.17-09.20.18:414][ 54]LogPlayLevel: PIE: World Init took: (0.000577s)
[2017.09.17-09.20.18:414][ 54]LogPlayLevel: PIE: Created PIE world by copying editor world from /Game/Maps/Lobby.Lobby to /Game/Maps/UEDPIE_0_Lobby.Lobby (0.003464s)
[2017.09.17-09.20.18:442][ 54]LogInit: XAudio2 using 'ASUS VS228-8 (NVIDIA High Definition Audio)' : 2 channels at 48 kHz using 16 bits per sample (channel mask 0x3)
[2017.09.17-09.20.18:449][ 54]LogInit: FAudioDevice initialized.
[2017.09.17-09.20.18:483][ 54]LogLoad: Game class is 'NetworkingGameMode_C'
[2017.09.17-09.20.18:485][ 54]LogWorld: Bringing World /Game/Maps/UEDPIE_0_Lobby.Lobby up for play (max tick rate 0) at 2017.09.17-02.20.18
[2017.09.17-09.20.18:486][ 54]LogWorld: Bringing up level for play took: 0.001526
[2017.09.17-09.20.18:498][ 54]LogGameMode: Display: Match State Changed from EnteringMap to WaitingToStart
[2017.09.17-09.20.18:498][ 54]LogGameState: Match State Changed from EnteringMap to WaitingToStart
[2017.09.17-09.20.18:498][ 54]PIE: Play in editor start time for /Game/Maps/UEDPIE_0_Lobby -0.312
[2017.09.17-09.20.18:501][ 54]LogBlueprintUserMessages: Late PlayInEditor Detection: Level '/Game/Maps/Lobby.Lobby:PersistentLevel' has LevelScriptBlueprint '/Game/Maps/Lobby.Lobby:PersistentLevel.Lobby' with GeneratedClass '/Game/Maps/Lobby.Lobby_C' with ClassGeneratedBy '/Game/Maps/Lobby.Lobby:PersistentLevel.Lobby'
[2017.09.17-09.20.21:059][360]LogBlueprintUserMessages: Early EndPlayMap Detection: Level '/Game/Maps/Lobby.Lobby:PersistentLevel' has LevelScriptBlueprint '/Game/Maps/Lobby.Lobby:PersistentLevel.Lobby' with GeneratedClass '/Game/Maps/Lobby.Lobby_C' with ClassGeneratedBy '/Game/Maps/Lobby.Lobby:PersistentLevel.Lobby'
[2017.09.17-09.20.21:090][360]LogOnline: Display: OSS: FOnlineSubsystemNull::Shutdown()
[2017.09.17-09.20.21:090][360]LogOnline: Display: OSS: FOnlineAsyncTaskManager::Stop() ActiveTask:0000000000000000 Tasks[0/0]
[2017.09.17-09.20.21:091][360]LogOnline: Display: OSS: FOnlineAsyncTaskManager::Exit() started
[2017.09.17-09.20.21:091][360]LogOnline: Display: OSS: FOnlineAsyncTaskManager::Exit() finished
[2017.09.17-09.20.21:091][360]LogPlayLevel: Display: Shutting down PIE online subsystems
[2017.09.17-09.20.21:091][360]LogBlueprintUserMessages: Late EndPlayMap Detection: Level '/Game/Maps/Lobby.Lobby:PersistentLevel' has LevelScriptBlueprint '/Game/Maps/Lobby.Lobby:PersistentLevel.Lobby' with GeneratedClass '/Game/Maps/Lobby.Lobby_C' with ClassGeneratedBy '/Game/Maps/Lobby.Lobby:PersistentLevel.Lobby'
[2017.09.17-09.20.21:164][367]LogPlayLevel: Display: Destroying online subsystem :Context_14
[2017.09.17-09.20.21:164][367]LogOnline: Display: OSS: FOnlineSubsystemNull::Shutdown()
[2017.09.17-09.20.27:164][ 84]LogBlueprintUserMessages: Early PlayInEditor Detection: Level '/Game/Maps/Lobby.Lobby:PersistentLevel' has LevelScriptBlueprint '/Game/Maps/Lobby.Lobby:PersistentLevel.Lobby' with GeneratedClass '/Game/Maps/Lobby.Lobby_C' with ClassGeneratedBy '/Game/Maps/Lobby.Lobby:PersistentLevel.Lobby'
[2017.09.17-09.20.27:164][ 84]LogPlayLevel: PlayLevel: No blueprints needed recompiling
[2017.09.17-09.20.27:164][ 84]LogHMD: Initializing OVRPlugin session
[2017.09.17-09.20.27:182][ 84]PIE: New page: PIE session: Lobby (Sep 16, 2017, 7:20:27 PM)
[2017.09.17-09.20.27:183][ 84]LogPlayLevel: Creating play world package: /Game/Maps/UEDPIE_0_Lobby
[2017.09.17-09.20.27:185][ 84]LogPlayLevel: PIE: StaticDuplicateObject took: (0.002781s)
[2017.09.17-09.20.27:186][ 84]LogAIModule: Creating AISystem for world Lobby
[2017.09.17-09.20.27:186][ 84]LogPlayLevel: PIE: World Init took: (0.000647s)
[2017.09.17-09.20.27:186][ 84]LogPlayLevel: PIE: Created PIE world by copying editor world from /Game/Maps/Lobby.Lobby to /Game/Maps/UEDPIE_0_Lobby.Lobby (0.003679s)
[2017.09.17-09.20.27:218][ 84]LogInit: XAudio2 using 'Headphones (2- Rift Audio)' : 2 channels at 48 kHz using 16 bits per sample (channel mask 0x3)
[2017.09.17-09.20.27:228][ 84]LogInit: FAudioDevice initialized.
[2017.09.17-09.20.27:323][ 84]LogHMD: Allocating Oculus 2720 x 1600 rendertarget swapchain
[2017.09.17-09.20.27:350][ 84]LogLoad: Game class is 'NetworkingGameMode_C'
[2017.09.17-09.20.27:352][ 84]LogWorld: Bringing World /Game/Maps/UEDPIE_0_Lobby.Lobby up for play (max tick rate 0) at 2017.09.17-02.20.27
[2017.09.17-09.20.27:352][ 84]LogWorld: Bringing up level for play took: 0.001480
[2017.09.17-09.20.27:364][ 84]LogGameMode: Display: Match State Changed from EnteringMap to WaitingToStart
[2017.09.17-09.20.27:364][ 84]LogGameState: Match State Changed from EnteringMap to WaitingToStart
[2017.09.17-09.20.27:364][ 84]LogGameMode: Display: Match State Changed from WaitingToStart to InProgress
[2017.09.17-09.20.27:367][ 84]LogUnrealMath: Error: FMatrix::InverseFast(), trying to invert a NIL matrix, this results in NaNs! Use Inverse() instead.
[2017.09.17-09.20.27:367][ 84]LogOutputDevice: Warning: 

Script Stack:
BP_MotionController_C.SetupRoomScaleOutline
BP_MotionController_C.ExecuteUbergraph_BP_MotionController
BP_MotionController_C.ReceiveBeginPlay
FlightCharacter_C.ExecuteUbergraph_FlightCharacter
FlightCharacter_C.HandStartupMulti
FlightCharacter_C.ExecuteUbergraph_FlightCharacter
FlightCharacter_C.HandStartupServer
FlightCharacter_C.ExecuteUbergraph_FlightCharacter
FlightCharacter_C.ReceiveBeginPlay

[2017.09.17-09.20.27:414][ 84]LogStats: FPlatformStackWalk::StackWalkAndDump -  0.047 s
[2017.09.17-09.20.27:414][ 84]LogOutputDevice: Error: === Handled ensure: ===
[2017.09.17-09.20.27:414][ 84]LogOutputDevice: Error: 
[2017.09.17-09.20.27:414][ 84]LogOutputDevice: Error: Ensure condition failed: false [File:D:\Build\++UE4+Release-4.17+Compile\Sync\Engine\Source\Runtime\Core\Private\Math\Matrix.cpp] [Line: 8]
[2017.09.17-09.20.27:414][ 84]LogOutputDevice: Error: FMatrix::InverseFast(), trying to invert a NIL matrix, this results in NaNs! Use Inverse() instead.
[2017.09.17-09.20.27:414][ 84]LogOutputDevice: Error: Stack: 
[2017.09.17-09.20.27:414][ 84]LogOutputDevice: Error: UE4Editor-Core.dll!0x00000000493D3606
[2017.09.17-09.20.27:414][ 84]LogOutputDevice: Error: UE4Editor-Core.dll!0x000000004915C2D2
[2017.09.17-09.20.27:414][ 84]LogOutputDevice: Error: UE4Editor-Core.dll!0x0000000049174746
[2017.09.17-09.20.27:414][ 84]LogOutputDevice: Error: UE4Editor-Core.dll!0x00000000490FE1A1
[2017.09.17-09.20.27:414][ 84]LogOutputDevice: Error: UE4Editor-Engine.dll!0x0000000045AC74CB
[2017.09.17-09.20.27:414][ 84]LogOutputDevice: Error: UE4Editor-Engine.dll!0x000000004642AE63
[2017.09.17-09.20.27:414][ 84]LogOutputDevice: Error: UE4Editor-Engine.dll!0x0000000046461A74
[2017.09.17-09.20.27:414][ 84]LogOutputDevice: Error: UE4Editor-CoreUObject.dll!0x000000004B73EF44
[2017.09.17-09.20.27:414][ 84]LogOutputDevice: Error: UE4Editor-CoreUObject.dll!0x000000004B8FDF94
[2017.09.17-09.20.27:414][ 84]LogOutputDevice: Error: UE4Editor-CoreUObject.dll!0x000000004B9132F1
[2017.09.17-09.20.27:414][ 84]LogOutputDevice: Error: UE4Editor-CoreUObject.dll!0x000000004B9154D2
[2017.09.17-09.20.27:414][ 84]LogOutputDevice: Error: UE4Editor-CoreUObject.dll!0x000000004B8FE99E
[2017.09.17-09.20.27:414][ 84]LogOutputDevice: Error: UE4Editor-CoreUObject.dll!0x000000004B9154D2
[2017.09.17-09.20.27:414][ 84]LogOutputDevice: Error: UE4Editor-CoreUObject.dll!0x000000004B8FE99E
[2017.09.17-09.20.27:414][ 84]LogOutputDevice: Error: UE4Editor-CoreUObject.dll!0x000000004B9154D2
[2017.09.17-09.20.27:414][ 84]LogOutputDevice: Error: UE4Editor-CoreUObject.dll!0x000000004B73EF44
[2017.09.17-09.20.27:414][ 84]LogOutputDevice: Error: UE4Editor-CoreUObject.dll!0x000000004B914865
[2017.09.17-09.20.27:414][ 84]LogOutputDevice: Error: UE4Editor-Engine.dll!0x0000000045BAB217
[2017.09.17-09.20.27:414][ 84]LogOutputDevice: Error: UE4Editor-Engine.dll!0x0000000046D557A7
[2017.09.17-09.20.27:414][ 84]LogOutputDevice: Error: UE4Editor-Engine.dll!0x0000000045B6DC0F
[2017.09.17-09.20.27:414][ 84]LogOutputDevice: Error: UE4Editor-Engine.dll!0x0000000045B7ABAB
[2017.09.17-09.20.27:414][ 84]LogOutputDevice: Error: UE4Editor-Engine.dll!0x0000000045BA6939
[2017.09.17-09.20.27:414][ 84]LogOutputDevice: Error: UE4Editor-Engine.dll!0x0000000045B87DE3
[2017.09.17-09.20.27:414][ 84]LogOutputDevice: Error: UE4Editor-Engine.dll!0x00000000462ABCB9
[2017.09.17-09.20.27:414][ 84]LogOutputDevice: Error: UE4Editor-Engine.dll!0x0000000045BE0576
[2017.09.17-09.20.27:414][ 84]LogOutputDevice: Error: UE4Editor-CoreUObject.dll!0x000000004B73EF44
[2017.09.17-09.20.27:414][ 84]LogOutputDevice: Error: UE4Editor-CoreUObject.dll!0x000000004B8FDF94
[2017.09.17-09.20.27:414][ 84]LogOutputDevice: Error: UE4Editor-CoreUObject.dll!0x000000004B9132F1
[2017.09.17-09.20.27:414][ 84]LogOutputDevice: Error: UE4Editor-CoreUObject.dll!0x000000004B93CF94
[2017.09.17-09.20.27:414][ 84]LogOutputDevice: Error: UE4Editor-CoreUObject.dll!0x000000004B9154D2
[2017.09.17-09.20.27:414][ 84]LogOutputDevice: Error: UE4Editor-CoreUObject.dll!0x000000004B8FE99E
[2017.09.17-09.20.27:414][ 84]LogOutputDevice: Error: UE4Editor-CoreUObject.dll!0x000000004B9154D2
[2017.09.17-09.20.27:415][ 84]LogOutputDevice: Error: UE4Editor-CoreUObject.dll!0x000000004B8FE99E
[2017.09.17-09.20.27:415][ 84]LogOutputDevice: Error: UE4Editor-CoreUObject.dll!0x000000004B9154D2
[2017.09.17-09.20.27:415][ 84]LogOutputDevice: Error: UE4Editor-CoreUObject.dll!0x000000004B8FE99E
[2017.09.17-09.20.27:415][ 84]LogOutputDevice: Error: UE4Editor-CoreUObject.dll!0x000000004B9154D2
[2017.09.17-09.20.27:415][ 84]LogOutputDevice: Error: UE4Editor-CoreUObject.dll!0x000000004B8FE99E
[2017.09.17-09.20.27:415][ 84]LogOutputDevice: Error: UE4Editor-CoreUObject.dll!0x000000004B9154D2
[2017.09.17-09.20.27:415][ 84]LogOutputDevice: Error: UE4Editor-CoreUObject.dll!0x000000004B8FE99E
[2017.09.17-09.20.27:415][ 84]LogOutputDevice: Error: UE4Editor-CoreUObject.dll!0x000000004B9154D2
[2017.09.17-09.20.27:415][ 84]LogOutputDevice: Error: UE4Editor-CoreUObject.dll!0x000000004B73EF44
[2017.09.17-09.20.27:415][ 84]LogOutputDevice: Error: UE4Editor-CoreUObject.dll!0x000000004B914865
[2017.09.17-09.20.27:415][ 84]LogOutputDevice: Error: UE4Editor-Engine.dll!0x0000000045BAB217
[2017.09.17-09.20.27:415][ 84]LogOutputDevice: Error: UE4Editor-Engine.dll!0x0000000046D557A7
[2017.09.17-09.20.27:415][ 84]LogOutputDevice: Error: UE4Editor-Engine.dll!0x0000000045B6DC0F
[2017.09.17-09.20.27:415][ 84]LogOutputDevice: Error: UE4Editor-Engine.dll!0x0000000045F1480E
[2017.09.17-09.20.27:415][ 84]LogOutputDevice: Error: UE4Editor-Engine.dll!0x0000000045B7ABAB
[2017.09.17-09.20.27:415][ 84]LogOutputDevice: Error: UE4Editor-Engine.dll!0x0000000046D3A4D1
[2017.09.17-09.20.27:415][ 84]LogOutputDevice: Error: UE4Editor-Engine.dll!0x00000000462B60DC
[2017.09.17-09.20.27:415][ 84]LogOutputDevice: Error: UE4Editor-Engine.dll!0x00000000462D2CA3
[2017.09.17-09.20.27:415][ 84]LogOutputDevice: Error: UE4Editor-Engine.dll!0x00000000462D73A3
[2017.09.17-09.20.27:415][ 84]LogOutputDevice: Error: UE4Editor-Engine.dll!0x0000000046D25C7E
[2017.09.17-09.20.27:415][ 84]LogOutputDevice: Error: UE4Editor-Engine.dll!0x00000000462D7B26
[2017.09.17-09.20.27:415][ 84]LogOutputDevice: Error: UE4Editor-UnrealEd.dll!0x0000000044B0A70C
[2017.09.17-09.20.27:415][ 84]LogOutputDevice: Error: UE4Editor-UnrealEd.dll!0x0000000044B350EE
[2017.09.17-09.20.27:415][ 84]LogOutputDevice: Error: UE4Editor-UnrealEd.dll!0x0000000044B50C34
[2017.09.17-09.20.27:415][ 84]LogOutputDevice: Error: UE4Editor-UnrealEd.dll!0x00000000445BBDB8
[2017.09.17-09.20.27:415][ 84]LogOutputDevice: Error: UE4Editor-UnrealEd.dll!0x0000000044E4CEE6
[2017.09.17-09.20.27:415][ 84]LogOutputDevice: Error: UE4Editor.exe!0x000000003E4C534A
[2017.09.17-09.20.27:415][ 84]LogOutputDevice: Error: UE4Editor.exe!0x000000003E4D3970
[2017.09.17-09.20.27:415][ 84]LogOutputDevice: Error: UE4Editor.exe!0x000000003E4D39EA
[2017.09.17-09.20.27:415][ 84]LogOutputDevice: Error: UE4Editor.exe!0x000000003E4E02D9
[2017.09.17-09.20.27:415][ 84]LogOutputDevice: Error: UE4Editor.exe!0x000000003E4E1C47
[2017.09.17-09.20.27:415][ 84]LogOutputDevice: Error: KERNEL32.DLL!0x0000000093B92774
[2017.09.17-09.20.27:415][ 84]LogOutputDevice: Error: ntdll.dll!0x0000000096690D51
[2017.09.17-09.20.27:415][ 84]LogOutputDevice: Error: 
[2017.09.17-09.20.27:416][ 84]LogStats:                SubmitErrorReport -  0.000 s
